FirstName,Surname,DocumentId,DocumentType,DocumentName,ApprovedOn
Dennis,Coco,120,ACTION PHOTO,108_ACTIONPHOTO_20222519092515_UploadX.jpg,2022-01-19
Dennis,Coco,121,ART,108_ART_20222519092507_UploadX.jpg,2022-01-19
Dennis,Coco,122,CONSENT FORM,108_CONSENTFORM_20222419092458_UploadX.jpg,2022-01-19
Dennis,Coco,123,LETTER,108_LETTER_20223819093821_UploadX.jpg,2022-01-19
Dennis,Coco,124,PROFILE IMAGE,108_PROFILEIMAGE_20222419092439_UploadX.jpg,2022-01-19
Dennis,Coco,1135,ACTION PHOTO,108_ACTIONPHOTO_20222919062916_UploadX.jpg,2022-01-19
Dennis,Coco,1136,ART,108_ART_20222919062948_UploadX.jpg,2022-01-19
Dennis,Coco,1137,CONSENT FORM,108_CONSENTFORM_20222919062941_UploadX.jpg,2022-01-19
Dennis,Coco,1138,LETTER,108_LETTER_20222919062933_UploadX.jpg,2022-01-19
Dennis,Coco,1139,PROFILE IMAGE,108_PROFILEIMAGE_20222919062926_UploadX.jpg,2022-01-19
Dennis,Coco,1140,ACTION PHOTO,108_ACTIONPHOTO_20222919062916_UploadX.jpg,2022-01-19
Dennis,Coco,1141,ART,108_ART_20222919062948_UploadX.jpg,2022-01-19
Dennis,Coco,1142,CONSENT FORM,108_CONSENTFORM_20222919062941_UploadX.jpg,2022-01-19
Dennis,Coco,1143,LETTER,108_LETTER_20222919062933_UploadX.jpg,2022-01-19
Dennis,Coco,1144,PROFILE IMAGE,108_PROFILEIMAGE_20222919062926_UploadX.jpg,2022-01-19
Dennis,Coco,1145,ACTION PHOTO,108_ACTIONPHOTO_20222919062916_UploadX.jpg,2022-01-19
Dennis,Coco,1146,ART,108_ART_20222919062948_UploadX.jpg,2022-01-19
Dennis,Coco,1147,CONSENT FORM,108_CONSENTFORM_20222919062941_UploadX.jpg,2022-01-19
Dennis,Coco,1148,LETTER,108_LETTER_20222919062933_UploadX.jpg,2022-01-19
Dennis,Coco,1149,PROFILE IMAGE,108_PROFILEIMAGE_20222919062926_UploadX.jpg,2022-01-19
Dennis,Coco,1150,ACTION PHOTO,108_ACTIONPHOTO_20222919062916_UploadX.jpg,2022-01-19
Dennis,Coco,1151,ART,108_ART_20222919062948_UploadX.jpg,2022-01-19
Dennis,Coco,1152,CONSENT FORM,108_CONSENTFORM_20222919062941_UploadX.jpg,2022-01-19
Dennis,Coco,1153,LETTER,108_LETTER_20222919062933_UploadX.jpg,2022-01-19
Dennis,Coco,1154,PROFILE IMAGE,108_PROFILEIMAGE_20222919062926_UploadX.jpg,2022-01-19
Dennis,Coco,1155,ACTION PHOTO,108_ACTIONPHOTO_20222919062916_UploadX.jpg,2022-01-19
Dennis,Coco,1156,ART,108_ART_20222919062948_UploadX.jpg,2022-01-19
Dennis,Coco,1157,CONSENT FORM,108_CONSENTFORM_20222919062941_UploadX.jpg,2022-01-19
Dennis,Coco,1158,LETTER,108_LETTER_20222919062933_UploadX.jpg,2022-01-19
Dennis,Coco,1159,PROFILE IMAGE,108_PROFILEIMAGE_20222919062926_UploadX.jpg,2022-01-19
Dennis,Coco,1160,ACTION PHOTO,108_ACTIONPHOTO_20222919062916_UploadX.jpg,2022-01-19
Dennis,Coco,1161,ART,108_ART_20222919062948_UploadX.jpg,2022-01-19
Dennis,Coco,1162,CONSENT FORM,108_CONSENTFORM_20222919062941_UploadX.jpg,2022-01-19
Dennis,Coco,1163,LETTER,108_LETTER_20222919062933_UploadX.jpg,2022-01-19
Dennis,Coco,1164,PROFILE IMAGE,108_PROFILEIMAGE_20222919062926_UploadX.jpg,2022-01-19
Dennis,Coco,1165,ACTION PHOTO,108_ACTIONPHOTO_20222919062916_UploadX.jpg,2022-01-19
Dennis,Coco,1166,ART,108_ART_20222919062948_UploadX.jpg,2022-01-19
Dennis,Coco,1167,CONSENT FORM,108_CONSENTFORM_20222919062941_UploadX.jpg,2022-01-19
Dennis,Coco,1168,LETTER,108_LETTER_20222919062933_UploadX.jpg,2022-01-19
Dennis,Coco,1169,PROFILE IMAGE,108_PROFILEIMAGE_20222919062926_UploadX.jpg,2022-01-19
Dennis,Coco,1170,ACTION PHOTO,108_ACTIONPHOTO_20222919062916_UploadX.jpg,2022-01-19
Dennis,Coco,1171,ART,108_ART_20222919062948_UploadX.jpg,2022-01-19
Dennis,Coco,1172,CONSENT FORM,108_CONSENTFORM_20222919062941_UploadX.jpg,2022-01-19
Dennis,Coco,1173,LETTER,108_LETTER_20222919062933_UploadX.jpg,2022-01-19
Dennis,Coco,1174,PROFILE IMAGE,108_PROFILEIMAGE_20222919062926_UploadX.jpg,2022-01-19
Dennis,Coco,1175,ACTION PHOTO,108_ACTIONPHOTO_20222919062916_UploadX.jpg,2022-01-19
Dennis,Coco,1176,ART,108_ART_20222919062948_UploadX.jpg,2022-01-19
Dennis,Coco,1177,CONSENT FORM,108_CONSENTFORM_20222919062941_UploadX.jpg,2022-01-19
Dennis,Coco,1178,LETTER,108_LETTER_20222919062933_UploadX.jpg,2022-01-19
Dennis,Coco,1179,PROFILE IMAGE,108_PROFILEIMAGE_20222919062926_UploadX.jpg,2022-01-19
Dennis,Coco,1180,ACTION PHOTO,108_ACTIONPHOTO_20222919062916_UploadX.jpg,2022-01-19
Dennis,Coco,1181,ART,108_ART_20222919062948_UploadX.jpg,2022-01-19
Dennis,Coco,1182,CONSENT FORM,108_CONSENTFORM_20222919062941_UploadX.jpg,2022-01-19
Dennis,Coco,1183,LETTER,108_LETTER_20222919062933_UploadX.jpg,2022-01-19
Dennis,Coco,1184,PROFILE IMAGE,108_PROFILEIMAGE_20222919062926_UploadX.jpg,2022-01-19
Dennis,Coco,1185,ACTION PHOTO,108_ACTIONPHOTO_20222919062916_UploadX.jpg,2022-01-19
Dennis,Coco,1186,ART,108_ART_20222919062948_UploadX.jpg,2022-01-19
Dennis,Coco,1187,CONSENT FORM,108_CONSENTFORM_20222919062941_UploadX.jpg,2022-01-19
Dennis,Coco,1188,LETTER,108_LETTER_20222919062933_UploadX.jpg,2022-01-19
Dennis,Coco,1189,PROFILE IMAGE,108_PROFILEIMAGE_20222919062926_UploadX.jpg,2022-01-19
Dennis,Coco,1190,ACTION PHOTO,108_ACTIONPHOTO_20222919062916_UploadX.jpg,2022-01-19
Dennis,Coco,1191,ART,108_ART_20222919062948_UploadX.jpg,2022-01-19
Dennis,Coco,1192,CONSENT FORM,108_CONSENTFORM_20222919062941_UploadX.jpg,2022-01-19
Dennis,Coco,1193,LETTER,108_LETTER_20222919062933_UploadX.jpg,2022-01-19
Dennis,Coco,1194,PROFILE IMAGE,108_PROFILEIMAGE_20222919062926_UploadX.jpg,2022-01-19
Dennis,Coco,1195,ACTION PHOTO,108_ACTIONPHOTO_20222919062916_UploadX.jpg,2022-01-19
Dennis,Coco,1196,ART,108_ART_20222919062948_UploadX.jpg,2022-01-19
Dennis,Coco,1197,CONSENT FORM,108_CONSENTFORM_20222919062941_UploadX.jpg,2022-01-19
Dennis,Coco,1198,LETTER,108_LETTER_20222919062933_UploadX.jpg,2022-01-19
Dennis,Coco,1199,PROFILE IMAGE,108_PROFILEIMAGE_20222919062926_UploadX.jpg,2022-01-19
Dennis,Coco,1200,ACTION PHOTO,108_ACTIONPHOTO_20222919062916_UploadX.jpg,2022-01-19
Dennis,Coco,1201,ART,108_ART_20222919062948_UploadX.jpg,2022-01-19
Dennis,Coco,1202,CONSENT FORM,108_CONSENTFORM_20222919062941_UploadX.jpg,2022-01-19
Dennis,Coco,1203,LETTER,108_LETTER_20222919062933_UploadX.jpg,2022-01-19
Dennis,Coco,1204,PROFILE IMAGE,108_PROFILEIMAGE_20222919062926_UploadX.jpg,2022-01-19
