FirstName,Surname,DocumentId,DocumentType,DocumentName,ApprovedOn
Dennis,Onsarigo,16,ACTION PHOTO,1_ACTIONPHOTO_20213011043028_UploadX.jpg,2021-11-11
Dennis,Onsarigo,17,ART,1_ART_20213011043022_UploadX.jpg,2021-11-11
Dennis,Onsarigo,18,CONSENT FORM,1_CONSENTFORM_20213011043016_UploadX.jpg,2021-11-11
Dennis,Onsarigo,19,LETTER,1_LETTER_20213011043010_UploadX.jpg,2021-11-11
Dennis,Onsarigo,20,PROFILE IMAGE,1_PROFILEIMAGE_20213011043005_UploadX.jpg,2021-11-11
Camilla,Desita,21,ACTION PHOTO,2_ACTIONPHOTO_20213712123749_UploadX.jpg,2021-11-12
Camilla,Desita,22,ART,2_ART_20213712123742_UploadX.jpg,2021-11-12
Camilla,Desita,23,CONSENT FORM,2_CONSENTFORM_20213712123736_UploadX.jpg,2021-11-12
Camilla,Desita,24,LETTER,2_LETTER_20213712123730_UploadX.jpg,2021-11-12
Camilla,Desita,25,PROFILE IMAGE,2_PROFILEIMAGE_20213712123724_UploadX.jpg,2021-11-12
